{
  "projects": [
    {
      "name": "projectName1",
      "path": "/project/path1",
      "url" : "http://projectRepoUrl1",
      "vcs" : "svn",
      "dependencies" : [
          "projectName2"
        ]
    },
    {
      "name": "projectName2",
      "path": "/project/path2",
      "url" : "http://projectRepoUrl2",
      "vcs" : "git",
      "dependencies" : [
          "projectName3"
        ]
    },
    {
      "name": "projectName3",
      "path": "/project/path3",
      "url" : "http://projectRepoUrl3",
      "vcs" : "svn",
      "dependencies" : [
        ]
    }
  ]
}